<svg xmlns="http://www.w3.org/2000/svg" width="122" height="30">
  <g fill="none">
    <path fill="#4A4757" d="M13.706 0v2.178h-2.229v2.215H5.61L17 23.996 28.392 4.393h-8.09V2.215h2.21V0H31.2C32.746 0 34 1.246 34 2.782c0 .489-.13.968-.375 1.391l-14.2 24.435a2.81 2.81 0 0 1-4.85 0L.375 4.173a2.772 2.772 0 0 1 1.026-3.8A2.812 2.812 0 0 1 2.8 0h10.906z"/>
    <path fill="#00BBE6" d="M17.004 15.229a1.56 1.56 0 0 1 1.566 1.555c0 .422-.168.804-.442 1.084v.033h-.033c-.282.272-.667.44-1.09.44a1.56 1.56 0 0 1-1.567-1.557 1.56 1.56 0 0 1 1.566-1.555z"/>
    <path fill="#C263BF" d="M18.128 6.626v2.196h-2.211V6.626z"/>
    <path fill="#FF8BA2" d="M15.917 4.429v2.197h-2.211V4.429z"/>
    <path fill="#4A4757" fill-opacity=".2" d="M22.512 0v2.215h-2.211V0h2.211zm-8.806 2.178v2.215h-2.233V2.178h2.233z"/>
    <path fill="#4A4757" d="M43.52 7.983c2.972 0 5.477 1.033 7.48 3.086 2 2.05 3.036 4.845 3.11 8.361l.01.456-.15.152H37.224c.202 1.729.84 3.123 1.917 4.2 1.2 1.2 2.613 1.793 4.272 1.793 2.867 0 5.03-1.426 6.558-4.337l.202-.063 3.274 1.715.062.2c-1.156 2.181-2.532 3.8-4.131 4.857C47.766 29.468 45.844 30 43.626 30c-3.071 0-5.628-1.085-7.632-3.24C34 24.614 33 22.022 33 19.01c0-3.012 1.007-5.612 3.012-7.768 2.015-2.167 4.53-3.259 7.508-3.259zM79.355 4l7.806 14.032h.567L95.534 4h4.39v26h-4.287V17.185l.302-4.698h-.688l-6.487 11.885H86.16l-6.523-11.885h-.688l.302 4.715V30H75V4h4.355zm42.074 0v4.23h-10.99v6.655h9.887v4.23h-9.886v6.656h10.989V30h-15.15V4h15.15zm-58.47 3.983l.145.15v1.388a6.24 6.24 0 0 1 .933-.799 4.201 4.201 0 0 1 2.432-.739c.885 0 1.862.283 2.936.845l.429.225.056.212-2.037 3.232-.187.052-.35-.18c-.332-.171-.643-.255-.938-.255-.575 0-1.098.282-1.596.874-.547.65-.962 1.516-1.243 2.6-.287 1.11-.435 3.186-.435 6.174v7.768l-.145.148h-3.924l-.145-.148V8.132l.145-.149h3.924zM43.481 12.15c-2.9 0-4.87 1.22-5.999 3.716l-.022.052h12.263c-.399-1.066-1.079-1.915-2.05-2.562-1.211-.805-2.604-1.206-4.192-1.206z"/>
  </g>
</svg>
