<svg xmlns="http://www.w3.org/2000/svg" width="1440" height="714">
  <path fill="#EBEDFA" fill-rule="evenodd" d="M0 0a7880.902 7880.902 0 0 0 720 32.943A7880.902 7880.902 0 0 0 1440 0v714c-239.978-20.713-479.97-31.07-719.978-31.07C480.015 682.93 240.007 693.288 0 714V0z"/>
</svg>
