<svg xmlns="http://www.w3.org/2000/svg" width="841" height="1077">
  <defs>
    <linearGradient id="landing_page_desktop-a" x1="50%" x2="77.659%" y1="0%" y2="96.799%">
      <stop offset="0%" stop-color="#FFBACB"/>
      <stop offset="100%" stop-color="#FF849C"/>
    </linearGradient>
    <linearGradient id="landing_page_desktop-b" x1="94.215%" x2="56.339%" y1="0%" y2="27.17%">
      <stop offset="0%" stop-color="#FFDDCD"/>
      <stop offset="100%" stop-color="#FFB99F"/>
    </linearGradient>
    <linearGradient id="landing_page_desktop-c" x1="0%" x2="50%" y1="50%" y2="100%">
      <stop offset="0%" stop-color="#C763BB"/>
      <stop offset="100%" stop-color="#BC63C2"/>
    </linearGradient>
    <linearGradient id="landing_page_desktop-d" x1="56.332%" x2="7.255%" y1="25.356%" y2="13.277%">
      <stop offset="0%" stop-color="#00C9EC"/>
      <stop offset="100%" stop-color="#0098D5"/>
    </linearGradient>
    <linearGradient id="landing_page_desktop-e" x1="8.48%" x2="90.718%" y1="7.82%" y2="92.611%">
      <stop offset="0%" stop-color="#C763BB"/>
      <stop offset="100%" stop-color="#C97ACE"/>
    </linearGradient>
  </defs>
  <g fill="none" fill-rule="evenodd" opacity=".08">
    <path fill="url(#landing_page_desktop-a)" d="M8.056 1.988a6.5 6.5 0 1 1 6.888 11.024A6.5 6.5 0 0 1 8.056 1.988z" transform="translate(606 617)"/>
    <path fill="url(#landing_page_desktop-b)" d="M4.056 18.988a6.5 6.5 0 1 1 6.888 11.024 6.5 6.5 0 0 1-6.888-11.024z" transform="translate(606 617)"/>
    <path fill="url(#landing_page_desktop-c)" d="M25.056 5.988a6.5 6.5 0 1 1 6.888 11.024 6.5 6.5 0 0 1-6.888-11.024z" transform="translate(606 617)"/>
    <path fill="url(#landing_page_desktop-d)" d="M22.056 22.988a6.5 6.5 0 1 1 6.888 11.024 6.5 6.5 0 0 1-6.888-11.024z" transform="translate(606 617)"/>
    <path fill="url(#landing_page_desktop-a)" d="M8.056 1.988a6.5 6.5 0 1 1 6.888 11.024A6.5 6.5 0 0 1 8.056 1.988z" transform="translate(336 138)"/>
    <path fill="url(#landing_page_desktop-b)" d="M4.056 18.988a6.5 6.5 0 1 1 6.888 11.024 6.5 6.5 0 0 1-6.888-11.024z" transform="translate(336 138)"/>
    <path fill="url(#landing_page_desktop-c)" d="M25.056 5.988a6.5 6.5 0 1 1 6.888 11.024 6.5 6.5 0 0 1-6.888-11.024z" transform="translate(336 138)"/>
    <path fill="url(#landing_page_desktop-d)" d="M22.056 22.988a6.5 6.5 0 1 1 6.888 11.024 6.5 6.5 0 0 1-6.888-11.024z" transform="translate(336 138)"/>
    <path fill="url(#landing_page_desktop-a)" d="M8.056 1.988a6.5 6.5 0 1 1 6.888 11.024A6.5 6.5 0 0 1 8.056 1.988z" transform="translate(0 5)"/>
    <path fill="url(#landing_page_desktop-b)" d="M4.056 18.988a6.5 6.5 0 1 1 6.888 11.024 6.5 6.5 0 0 1-6.888-11.024z" transform="translate(0 5)"/>
    <path fill="url(#landing_page_desktop-c)" d="M25.056 5.988a6.5 6.5 0 1 1 6.888 11.024 6.5 6.5 0 0 1-6.888-11.024z" transform="translate(0 5)"/>
    <path fill="url(#landing_page_desktop-d)" d="M22.056 22.988a6.5 6.5 0 1 1 6.888 11.024 6.5 6.5 0 0 1-6.888-11.024z" transform="translate(0 5)"/>
    <path fill="url(#landing_page_desktop-a)" d="M18.35 4.53C25.283.196 34.416 2.304 38.749 9.238c4.332 6.933 2.224 16.066-4.71 20.398-6.933 4.333-16.066 2.224-20.399-4.709-4.332-6.933-2.224-16.066 4.71-20.399z" transform="translate(754 115)"/>
    <path fill="url(#landing_page_desktop-b)" d="M9.239 43.251c6.933-4.332 16.066-2.224 20.398 4.71 4.333 6.933 2.224 16.066-4.709 20.399-6.933 4.332-16.066 2.224-20.399-4.71-4.332-6.933-2.224-16.066 4.71-20.399z" transform="translate(754 115)"/>
    <path fill="url(#landing_page_desktop-c)" d="M57.072 13.64c6.933-4.332 16.066-2.224 20.399 4.71 4.332 6.933 2.224 16.066-4.71 20.399-6.933 4.332-16.066 2.224-20.398-4.71-4.333-6.933-2.224-16.066 4.709-20.399z" transform="translate(754 115)"/>
    <path fill="url(#landing_page_desktop-d)" d="M50.239 52.363c6.933-4.333 16.066-2.224 20.398 4.709 4.333 6.933 2.224 16.066-4.709 20.399-6.933 4.332-16.066 2.224-20.399-4.71-4.332-6.933-2.224-16.066 4.71-20.398z" transform="translate(754 115)"/>
    <path fill="url(#landing_page_desktop-a)" d="M18.35 4.53C25.283.196 34.416 2.304 38.749 9.238c4.332 6.933 2.224 16.066-4.71 20.398-6.933 4.333-16.066 2.224-20.399-4.709-4.332-6.933-2.224-16.066 4.71-20.399z" transform="translate(457)"/>
    <path fill="url(#landing_page_desktop-b)" d="M9.239 43.251c6.933-4.332 16.066-2.224 20.398 4.71 4.333 6.933 2.224 16.066-4.709 20.399-6.933 4.332-16.066 2.224-20.399-4.71-4.332-6.933-2.224-16.066 4.71-20.399z" transform="translate(457)"/>
    <path fill="url(#landing_page_desktop-c)" d="M57.072 13.64c6.933-4.332 16.066-2.224 20.399 4.71 4.332 6.933 2.224 16.066-4.71 20.399-6.933 4.332-16.066 2.224-20.398-4.71-4.333-6.933-2.224-16.066 4.709-20.399z" transform="translate(457)"/>
    <path fill="url(#landing_page_desktop-d)" d="M50.239 52.363c6.933-4.333 16.066-2.224 20.398 4.709 4.333 6.933 2.224 16.066-4.709 20.399-6.933 4.332-16.066 2.224-20.399-4.71-4.332-6.933-2.224-16.066 4.71-20.398z" transform="translate(457)"/>
    <path fill="url(#landing_page_desktop-a)" d="M32.224 7.954C44.4.345 60.438 4.048 68.046 16.224c7.609 12.176 3.906 28.214-8.27 35.822-12.176 7.609-28.214 3.906-35.822-8.27-7.609-12.176-3.906-28.214 8.27-35.822z" transform="translate(480 738)"/>
    <path fill="url(#landing_page_desktop-b)" d="M16.224 75.954c12.176-7.609 28.214-3.906 35.822 8.27 7.609 12.176 3.906 28.214-8.27 35.822-12.176 7.609-28.214 3.906-35.822-8.27C.345 99.6 4.048 83.562 16.224 75.954z" transform="translate(480 738)"/>
    <path fill="url(#landing_page_desktop-c)" d="M100.224 23.954c12.176-7.609 28.214-3.906 35.822 8.27 7.609 12.176 3.906 28.214-8.27 35.822-12.176 7.609-28.214 3.906-35.822-8.27-7.609-12.176-3.906-28.214 8.27-35.822z" transform="translate(480 738)"/>
    <path fill="url(#landing_page_desktop-d)" d="M88.224 91.954c12.176-7.609 28.214-3.906 35.822 8.27 7.609 12.176 3.906 28.214-8.27 35.822-12.176 7.609-28.214 3.906-35.822-8.27-7.609-12.176-3.906-28.214 8.27-35.822z" transform="translate(480 738)"/>
    <path fill="url(#landing_page_desktop-a)" d="M32.224 7.954C44.4.345 60.438 4.048 68.046 16.224c7.609 12.176 3.906 28.214-8.27 35.822-12.176 7.609-28.214 3.906-35.822-8.27-7.609-12.176-3.906-28.214 8.27-35.822z" transform="translate(642 933)"/>
    <path fill="url(#landing_page_desktop-b)" d="M16.224 75.954c12.176-7.609 28.214-3.906 35.822 8.27 7.609 12.176 3.906 28.214-8.27 35.822-12.176 7.609-28.214 3.906-35.822-8.27C.345 99.6 4.048 83.562 16.224 75.954z" transform="translate(642 933)"/>
    <path fill="url(#landing_page_desktop-c)" d="M100.224 23.954c12.176-7.609 28.214-3.906 35.822 8.27 7.609 12.176 3.906 28.214-8.27 35.822-12.176 7.609-28.214 3.906-35.822-8.27-7.609-12.176-3.906-28.214 8.27-35.822z" transform="translate(642 933)"/>
    <path fill="url(#landing_page_desktop-d)" d="M88.224 91.954c12.176-7.609 28.214-3.906 35.822 8.27 7.609 12.176 3.906 28.214-8.27 35.822-12.176 7.609-28.214 3.906-35.822-8.27-7.609-12.176-3.906-28.214 8.27-35.822z" transform="translate(642 933)"/>
    <path fill="url(#landing_page_desktop-a)" d="M5.633 5.27l6.344-3.965a2.007 2.007 0 0 1 2.766.639l3.964 6.344c.588.94.302 2.178-.638 2.766l-6.345 3.964a2.007 2.007 0 0 1-2.765-.638L4.994 8.035a2.007 2.007 0 0 1 .639-2.765z" transform="translate(549 184)"/>
    <path fill="url(#landing_page_desktop-b)" d="M1.944 21.097l6.344-3.964a2.007 2.007 0 0 1 2.766.638l3.964 6.345c.588.94.302 2.178-.638 2.766l-6.345 3.964a2.007 2.007 0 0 1-2.765-.639l-3.965-6.344a2.007 2.007 0 0 1 .639-2.766z" transform="translate(549 184)"/>
    <path fill="url(#landing_page_desktop-e)" d="M21.36 8.964L27.705 5a2.007 2.007 0 0 1 2.766.639l3.964 6.344c.587.94.301 2.178-.639 2.766l-6.344 3.964a2.007 2.007 0 0 1-2.766-.638l-3.964-6.345a2.007 2.007 0 0 1 .638-2.766z" transform="translate(549 184)"/>
    <path fill="url(#landing_page_desktop-d)" d="M17.881 24.777l6.344-3.965a2.007 2.007 0 0 1 2.766.639l3.965 6.344c.587.94.301 2.179-.639 2.766l-6.344 3.964a2.007 2.007 0 0 1-2.766-.638l-3.964-6.344a2.007 2.007 0 0 1 .638-2.766z" transform="translate(549 184)"/>
    <path fill="url(#landing_page_desktop-a)" d="M5.633 5.27l6.344-3.965a2.007 2.007 0 0 1 2.766.639l3.964 6.344c.588.94.302 2.178-.638 2.766l-6.345 3.964a2.007 2.007 0 0 1-2.765-.638L4.994 8.035a2.007 2.007 0 0 1 .639-2.765z" transform="translate(300 13)"/>
    <path fill="url(#landing_page_desktop-b)" d="M1.944 21.097l6.344-3.964a2.007 2.007 0 0 1 2.766.638l3.964 6.345c.588.94.302 2.178-.638 2.766l-6.345 3.964a2.007 2.007 0 0 1-2.765-.639l-3.965-6.344a2.007 2.007 0 0 1 .639-2.766z" transform="translate(300 13)"/>
    <path fill="url(#landing_page_desktop-e)" d="M21.36 8.964L27.705 5a2.007 2.007 0 0 1 2.766.639l3.964 6.344c.587.94.301 2.178-.639 2.766l-6.344 3.964a2.007 2.007 0 0 1-2.766-.638l-3.964-6.345a2.007 2.007 0 0 1 .638-2.766z" transform="translate(300 13)"/>
    <path fill="url(#landing_page_desktop-d)" d="M17.881 24.777l6.344-3.965a2.007 2.007 0 0 1 2.766.639l3.965 6.344c.587.94.301 2.179-.639 2.766l-6.344 3.964a2.007 2.007 0 0 1-2.766-.638l-3.964-6.344a2.007 2.007 0 0 1 .638-2.766z" transform="translate(300 13)"/>
    <path fill="url(#landing_page_desktop-a)" d="M5.633 5.27l6.344-3.965a2.007 2.007 0 0 1 2.766.639l3.964 6.344c.588.94.302 2.178-.638 2.766l-6.345 3.964a2.007 2.007 0 0 1-2.765-.638L4.994 8.035a2.007 2.007 0 0 1 .639-2.765z" transform="translate(720 5)"/>
    <path fill="url(#landing_page_desktop-b)" d="M1.944 21.097l6.344-3.964a2.007 2.007 0 0 1 2.766.638l3.964 6.345c.588.94.302 2.178-.638 2.766l-6.345 3.964a2.007 2.007 0 0 1-2.765-.639l-3.965-6.344a2.007 2.007 0 0 1 .639-2.766z" transform="translate(720 5)"/>
    <path fill="url(#landing_page_desktop-e)" d="M21.36 8.964L27.705 5a2.007 2.007 0 0 1 2.766.639l3.964 6.344c.587.94.301 2.178-.639 2.766l-6.344 3.964a2.007 2.007 0 0 1-2.766-.638l-3.964-6.345a2.007 2.007 0 0 1 .638-2.766z" transform="translate(720 5)"/>
    <path fill="url(#landing_page_desktop-d)" d="M17.881 24.777l6.344-3.965a2.007 2.007 0 0 1 2.766.639l3.965 6.344c.587.94.301 2.179-.639 2.766l-6.344 3.964a2.007 2.007 0 0 1-2.766-.638l-3.964-6.344a2.007 2.007 0 0 1 .638-2.766z" transform="translate(720 5)"/>
    <path fill="url(#landing_page_desktop-a)" d="M5.633 5.27l6.344-3.965a2.007 2.007 0 0 1 2.766.639l3.964 6.344c.588.94.302 2.178-.638 2.766l-6.345 3.964a2.007 2.007 0 0 1-2.765-.638L4.994 8.035a2.007 2.007 0 0 1 .639-2.765z" transform="translate(480 409)"/>
    <path fill="url(#landing_page_desktop-b)" d="M1.944 21.097l6.344-3.964a2.007 2.007 0 0 1 2.766.638l3.964 6.345c.588.94.302 2.178-.638 2.766l-6.345 3.964a2.007 2.007 0 0 1-2.765-.639l-3.965-6.344a2.007 2.007 0 0 1 .639-2.766z" transform="translate(480 409)"/>
    <path fill="url(#landing_page_desktop-e)" d="M21.36 8.964L27.705 5a2.007 2.007 0 0 1 2.766.639l3.964 6.344c.587.94.301 2.178-.639 2.766l-6.344 3.964a2.007 2.007 0 0 1-2.766-.638l-3.964-6.345a2.007 2.007 0 0 1 .638-2.766z" transform="translate(480 409)"/>
    <path fill="url(#landing_page_desktop-d)" d="M17.881 24.777l6.344-3.965a2.007 2.007 0 0 1 2.766.639l3.965 6.344c.587.94.301 2.179-.639 2.766l-6.344 3.964a2.007 2.007 0 0 1-2.766-.638l-3.964-6.344a2.007 2.007 0 0 1 .638-2.766z" transform="translate(480 409)"/>
    <path fill="url(#landing_page_desktop-a)" d="M12.987 12.15l14.627-9.14a4.628 4.628 0 0 1 6.376 1.47l9.14 14.628a4.628 4.628 0 0 1-1.473 6.376l-14.627 9.14a4.628 4.628 0 0 1-6.376-1.472l-9.14-14.627a4.628 4.628 0 0 1 1.472-6.377z" transform="translate(77 150)"/>
    <path fill="url(#landing_page_desktop-b)" d="M4.481 48.641l14.628-9.14a4.628 4.628 0 0 1 6.376 1.472l9.14 14.627a4.628 4.628 0 0 1-1.472 6.377l-14.627 9.14a4.628 4.628 0 0 1-6.377-1.472L3.01 55.018a4.628 4.628 0 0 1 1.472-6.377z" transform="translate(77 150)"/>
    <path fill="url(#landing_page_desktop-e)" d="M49.248 20.668l14.627-9.14A4.628 4.628 0 0 1 70.25 13l9.14 14.627a4.628 4.628 0 0 1-1.472 6.377l-14.627 9.14a4.628 4.628 0 0 1-6.376-1.472l-9.14-14.627a4.628 4.628 0 0 1 1.472-6.377z" transform="translate(77 150)"/>
    <path fill="url(#landing_page_desktop-d)" d="M41.226 57.124l14.627-9.14a4.628 4.628 0 0 1 6.377 1.472l9.14 14.627a4.628 4.628 0 0 1-1.472 6.377L55.27 79.6a4.628 4.628 0 0 1-6.377-1.472l-9.14-14.627a4.628 4.628 0 0 1 1.472-6.377z" transform="translate(77 150)"/>
    <path fill="url(#landing_page_desktop-a)" d="M5.633 5.27l6.344-3.965a2.007 2.007 0 0 1 2.766.639l3.964 6.344c.588.94.302 2.178-.638 2.766l-6.345 3.964a2.007 2.007 0 0 1-2.765-.638L4.994 8.035a2.007 2.007 0 0 1 .639-2.765z" transform="translate(718 373)"/>
    <path fill="url(#landing_page_desktop-b)" d="M1.944 21.097l6.344-3.964a2.007 2.007 0 0 1 2.766.638l3.964 6.345c.588.94.302 2.178-.638 2.766l-6.345 3.964a2.007 2.007 0 0 1-2.765-.639l-3.965-6.344a2.007 2.007 0 0 1 .639-2.766z" transform="translate(718 373)"/>
    <path fill="url(#landing_page_desktop-e)" d="M21.36 8.964L27.705 5a2.007 2.007 0 0 1 2.766.639l3.964 6.344c.587.94.301 2.178-.639 2.766l-6.344 3.964a2.007 2.007 0 0 1-2.766-.638l-3.964-6.345a2.007 2.007 0 0 1 .638-2.766z" transform="translate(718 373)"/>
    <path fill="url(#landing_page_desktop-d)" d="M17.881 24.777l6.344-3.965a2.007 2.007 0 0 1 2.766.639l3.965 6.344c.587.94.301 2.179-.639 2.766l-6.344 3.964a2.007 2.007 0 0 1-2.766-.638l-3.964-6.344a2.007 2.007 0 0 1 .638-2.766z" transform="translate(718 373)"/>
    <path fill="url(#landing_page_desktop-a)" d="M5.633 5.27l6.344-3.965a2.007 2.007 0 0 1 2.766.639l3.964 6.344c.588.94.302 2.178-.638 2.766l-6.345 3.964a2.007 2.007 0 0 1-2.765-.638L4.994 8.035a2.007 2.007 0 0 1 .639-2.765z" transform="translate(444 961)"/>
    <path fill="url(#landing_page_desktop-b)" d="M1.944 21.097l6.344-3.964a2.007 2.007 0 0 1 2.766.638l3.964 6.345c.588.94.302 2.178-.638 2.766l-6.345 3.964a2.007 2.007 0 0 1-2.765-.639l-3.965-6.344a2.007 2.007 0 0 1 .639-2.766z" transform="translate(444 961)"/>
    <path fill="url(#landing_page_desktop-e)" d="M21.36 8.964L27.705 5a2.007 2.007 0 0 1 2.766.639l3.964 6.344c.587.94.301 2.178-.639 2.766l-6.344 3.964a2.007 2.007 0 0 1-2.766-.638l-3.964-6.345a2.007 2.007 0 0 1 .638-2.766z" transform="translate(444 961)"/>
    <path fill="url(#landing_page_desktop-d)" d="M17.881 24.777l6.344-3.965a2.007 2.007 0 0 1 2.766.639l3.965 6.344c.587.94.301 2.179-.639 2.766l-6.344 3.964a2.007 2.007 0 0 1-2.766-.638l-3.964-6.344a2.007 2.007 0 0 1 .638-2.766z" transform="translate(444 961)"/>
    <path fill="url(#landing_page_desktop-a)" d="M5.633 5.27l6.344-3.965a2.007 2.007 0 0 1 2.766.639l3.964 6.344c.588.94.302 2.178-.638 2.766l-6.345 3.964a2.007 2.007 0 0 1-2.765-.638L4.994 8.035a2.007 2.007 0 0 1 .639-2.765z" transform="translate(372 695)"/>
    <path fill="url(#landing_page_desktop-b)" d="M1.944 21.097l6.344-3.964a2.007 2.007 0 0 1 2.766.638l3.964 6.345c.588.94.302 2.178-.638 2.766l-6.345 3.964a2.007 2.007 0 0 1-2.765-.639l-3.965-6.344a2.007 2.007 0 0 1 .639-2.766z" transform="translate(372 695)"/>
    <path fill="url(#landing_page_desktop-e)" d="M21.36 8.964L27.705 5a2.007 2.007 0 0 1 2.766.639l3.964 6.344c.587.94.301 2.178-.639 2.766l-6.344 3.964a2.007 2.007 0 0 1-2.766-.638l-3.964-6.345a2.007 2.007 0 0 1 .638-2.766z" transform="translate(372 695)"/>
    <path fill="url(#landing_page_desktop-d)" d="M17.881 24.777l6.344-3.965a2.007 2.007 0 0 1 2.766.639l3.965 6.344c.587.94.301 2.179-.639 2.766l-6.344 3.964a2.007 2.007 0 0 1-2.766-.638l-3.964-6.344a2.007 2.007 0 0 1 .638-2.766z" transform="translate(372 695)"/>
    <path fill="url(#landing_page_desktop-a)" d="M5.633 5.27l6.344-3.965a2.007 2.007 0 0 1 2.766.639l3.964 6.344c.588.94.302 2.178-.638 2.766l-6.345 3.964a2.007 2.007 0 0 1-2.765-.638L4.994 8.035a2.007 2.007 0 0 1 .639-2.765z" transform="translate(700 802)"/>
    <path fill="url(#landing_page_desktop-b)" d="M1.944 21.097l6.344-3.964a2.007 2.007 0 0 1 2.766.638l3.964 6.345c.588.94.302 2.178-.638 2.766l-6.345 3.964a2.007 2.007 0 0 1-2.765-.639l-3.965-6.344a2.007 2.007 0 0 1 .639-2.766z" transform="translate(700 802)"/>
    <path fill="url(#landing_page_desktop-e)" d="M21.36 8.964L27.705 5a2.007 2.007 0 0 1 2.766.639l3.964 6.344c.587.94.301 2.178-.639 2.766l-6.344 3.964a2.007 2.007 0 0 1-2.766-.638l-3.964-6.345a2.007 2.007 0 0 1 .638-2.766z" transform="translate(700 802)"/>
    <path fill="url(#landing_page_desktop-d)" d="M17.881 24.777l6.344-3.965a2.007 2.007 0 0 1 2.766.639l3.965 6.344c.587.94.301 2.179-.639 2.766l-6.344 3.964a2.007 2.007 0 0 1-2.766-.638l-3.964-6.344a2.007 2.007 0 0 1 .638-2.766z" transform="translate(700 802)"/>
    <path fill="url(#landing_page_desktop-a)" d="M16.898 15.809L35.931 3.916A6.021 6.021 0 0 1 44.23 5.83l11.893 19.033a6.021 6.021 0 0 1-1.916 8.298L35.173 45.055a6.021 6.021 0 0 1-8.297-1.916L14.983 24.106a6.021 6.021 0 0 1 1.915-8.297z" transform="translate(733 538)"/>
    <path fill="url(#landing_page_desktop-b)" d="M5.831 63.292l19.033-11.893a6.021 6.021 0 0 1 8.298 1.915l11.893 19.033a6.021 6.021 0 0 1-1.916 8.298L24.106 92.538a6.021 6.021 0 0 1-8.297-1.916L3.916 71.59a6.021 6.021 0 0 1 1.915-8.297z" transform="translate(733 538)"/>
    <path fill="url(#landing_page_desktop-e)" d="M64.081 26.893L83.114 15a6.021 6.021 0 0 1 8.298 1.916l11.893 19.033a6.021 6.021 0 0 1-1.916 8.297L82.356 56.14a6.021 6.021 0 0 1-8.297-1.915L62.166 35.19a6.021 6.021 0 0 1 1.915-8.298z" transform="translate(733 538)"/>
    <path fill="url(#landing_page_desktop-d)" d="M53.643 74.33l19.033-11.893a6.021 6.021 0 0 1 8.298 1.916l11.893 19.033a6.021 6.021 0 0 1-1.916 8.297l-19.033 11.893a6.021 6.021 0 0 1-8.297-1.915L51.728 82.628a6.021 6.021 0 0 1 1.915-8.298z" transform="translate(733 538)"/>
  </g>
</svg>
