<?xml version="1.0" encoding="UTF-8"?>
<svg width="24px" height="24px" viewBox="0 0 24 24" version="1.1" xmlns="http://www.w3.org/2000/svg" xmlns:xlink="http://www.w3.org/1999/xlink">
    <!-- Generator: Sketch 58 (84663) - https://sketch.com -->
    <title>Icons / ic_back</title>
    <desc>Created with Sketch.</desc>
    <defs>
        <polygon id="path-1" points="20 11 7.82666667 11 13.4133333 5.41333333 12 4 4 12 12 20 13.4133333 18.5866667 7.82666667 13 20 13"></polygon>
    </defs>
    <g id="Icons-/-ic_back" stroke="none" stroke-width="1" fill="none" fill-rule="evenodd">
        <mask id="mask-2" fill="white">
            <use xlink:href="#path-1"></use>
        </mask>
        <g id="Path" fill-rule="nonzero"></g>
        <g id="✱-/-Colors-/-Icon-/-Black-/-inactive" mask="url(#mask-2)" fill="#000000" opacity="0.54">
            <rect id="Rectangle" x="0" y="0" width="24" height="24"></rect>
        </g>
    </g>
</svg>